{
    "status": "success",
    "message": "Payment plans fetched",
    "meta": {
      "page_info": {
        "total": 944,
        "current_page": 1,
        "total_pages": 95
      }
    },
    "data": [
      {
        "id": 59249,
        "name": "New Sample Plan",
        "amount": 999,
        "interval": "monthly",
        "duration": 0,
        "status": "active",
        "currency": "NGN",
        "plan_token": "rpp_d62d4b45e23b0010959e",
        "created_at": "2023-10-31T09:38:35.000Z"
      },
      {
        "id": 59244,
        "name": "Yello blah",
        "amount": 999,
        "interval": "monthly",
        "duration": 12,
        "status": "active",
        "currency": "NGN",
        "plan_token": "rpp_9ce298974e4204941f15",
        "created_at": "2023-10-31T09:14:01.000Z"
      },
      {
        "id": 59243,
        "name": "Yello blah",
        "amount": 999,
        "interval": "monthly",
        "duration": 12,
        "status": "active",
        "currency": "NGN",
        "plan_token": "rpp_50f9043ca762dec60117",
        "created_at": "2023-10-31T09:13:52.000Z"
      },
      {
        "id": 59240,
        "name": "Yello blah",
        "amount": 999,
        "interval": "monthly",
        "duration": 12,
        "status": "active",
        "currency": "NGN",
        "plan_token": "rpp_9987ae26a03176b70cd8",
        "created_at": "2023-10-31T09:06:33.000Z"
      },
      {
        "id": 59239,
        "name": "Yello blah",
        "amount": 999,
        "interval": "monthly",
        "duration": 12,
        "status": "active",
        "currency": "NGN",
        "plan_token": "rpp_2893335cd5c2c5372758",
        "created_at": "2023-10-31T09:05:59.000Z"
      },
      {
        "id": 59238,
        "name": "Yello blah",
        "amount": 999,
        "interval": "monthly",
        "duration": 12,
        "status": "active",
        "currency": "NGN",
        "plan_token": "rpp_6e4dc3e82bbef66da8ed",
        "created_at": "2023-10-31T08:55:53.000Z"
      },
      {
        "id": 59237,
        "name": "Yello blah",
        "amount": 999,
        "interval": "monthly",
        "duration": 12,
        "status": "active",
        "currency": "NGN",
        "plan_token": "rpp_e143de01d310b52fcf92",
        "created_at": "2023-10-31T08:49:41.000Z"
      },
      {
        "id": 59236,
        "name": "Yello blah",
        "amount": 999,
        "interval": "monthly",
        "duration": 12,
        "status": "active",
        "currency": "NGN",
        "plan_token": "rpp_d2c8e6a51879e8e42595",
        "created_at": "2023-10-31T08:49:26.000Z"
      },
      {
        "id": 59235,
        "name": "Yello blah",
        "amount": 999,
        "interval": "monthly",
        "duration": 12,
        "status": "active",
        "currency": "NGN",
        "plan_token": "rpp_5ce434d0abaea41d23b1",
        "created_at": "2023-10-31T08:48:38.000Z"
      },
      {
        "id": 59234,
        "name": "Yello blah",
        "amount": 999,
        "interval": "monthly",
        "duration": 12,
        "status": "active",
        "currency": "NGN",
        "plan_token": "rpp_235a553430916e5a5fab",
        "created_at": "2023-10-31T08:46:14.000Z"
      }
    ]
  }